/home/miguel/NetBeansProjects/mooc-java-programming-i/part06-Part06_07.HeightOrder/src/main/java/Main.java
/home/miguel/NetBeansProjects/mooc-java-programming-i/part06-Part06_07.HeightOrder/src/main/java/Person.java
/home/miguel/NetBeansProjects/mooc-java-programming-i/part06-Part06_07.HeightOrder/src/main/java/Room.java
